127.0.0.1 - - [05/Jul/2021:09:55:57 +0900] "GET / HTTP/1.1" 404 901
0:0:0:0:0:0:0:1 - - [05/Jul/2021:09:55:57 +0900] "GET /Web/ HTTP/1.1" 404 909
0:0:0:0:0:0:0:1 - - [05/Jul/2021:09:56:17 +0900] "GET /Web/RegisterUser HTTP/1.1" 200 498
0:0:0:0:0:0:0:1 - - [05/Jul/2021:10:00:31 +0900] "POST /Web/RegisterUser HTTP/1.1" 200 466
0:0:0:0:0:0:0:1 - - [05/Jul/2021:10:00:33 +0900] "GET /Web/RegisterUser?action=done HTTP/1.1" 200 329
0:0:0:0:0:0:0:1 - - [05/Jul/2021:10:00:34 +0900] "GET /Web/RegisterUser HTTP/1.1" 200 498
0:0:0:0:0:0:0:1 - - [05/Jul/2021:10:11:46 +0900] "POST /Web/RegisterUser HTTP/1.1" 200 466
0:0:0:0:0:0:0:1 - - [05/Jul/2021:10:11:51 +0900] "GET /Web/RegisterUser?action=done HTTP/1.1" 200 329
0:0:0:0:0:0:0:1 - - [05/Jul/2021:10:11:54 +0900] "GET /Web/RegisterUser HTTP/1.1" 200 498
127.0.0.1 - - [05/Jul/2021:10:16:00 +0900] "GET / HTTP/1.1" 404 901
0:0:0:0:0:0:0:1 - - [05/Jul/2021:10:16:00 +0900] "GET /Web/ HTTP/1.1" 404 909
0:0:0:0:0:0:0:1 - - [05/Jul/2021:10:16:14 +0900] "POST /Web/RegisterUser HTTP/1.1" 200 466
0:0:0:0:0:0:0:1 - - [05/Jul/2021:10:16:16 +0900] "GET /Web/RegisterUser?action=done HTTP/1.1" 200 329
0:0:0:0:0:0:0:1 - - [05/Jul/2021:10:16:18 +0900] "GET /Web/RegisterUser HTTP/1.1" 200 498
127.0.0.1 - - [05/Jul/2021:10:28:57 +0900] "GET / HTTP/1.1" 404 901
0:0:0:0:0:0:0:1 - - [05/Jul/2021:10:28:57 +0900] "GET /Web/ HTTP/1.1" 404 909
0:0:0:0:0:0:0:1 - - [05/Jul/2021:10:29:10 +0900] "GET /Web/RegisterUser HTTP/1.1" 200 498
0:0:0:0:0:0:0:1 - - [05/Jul/2021:10:29:17 +0900] "POST /Web/RegisterUser HTTP/1.1" 200 466
0:0:0:0:0:0:0:1 - - [05/Jul/2021:10:29:18 +0900] "GET /Web/RegisterUser?action=done HTTP/1.1" 200 329
127.0.0.1 - - [05/Jul/2021:10:33:05 +0900] "GET / HTTP/1.1" 404 901
0:0:0:0:0:0:0:1 - - [05/Jul/2021:10:33:05 +0900] "GET /Web/ HTTP/1.1" 404 909
0:0:0:0:0:0:0:1 - - [05/Jul/2021:10:33:19 +0900] "GET /Web/RegisterUser HTTP/1.1" 200 498
0:0:0:0:0:0:0:1 - - [05/Jul/2021:10:33:27 +0900] "POST /Web/RegisterUser HTTP/1.1" 200 466
0:0:0:0:0:0:0:1 - - [05/Jul/2021:10:33:38 +0900] "GET /Web/RegisterUser?action=done HTTP/1.1" 200 329
0:0:0:0:0:0:0:1 - - [05/Jul/2021:10:33:40 +0900] "GET /Web/RegisterUser HTTP/1.1" 200 498
0:0:0:0:0:0:0:1 - - [05/Jul/2021:10:38:57 +0900] "GET /Web/RegisterUser HTTP/1.1" 200 498
127.0.0.1 - - [05/Jul/2021:10:48:58 +0900] "GET / HTTP/1.1" 404 901
0:0:0:0:0:0:0:1 - - [05/Jul/2021:10:48:59 +0900] "GET /Web/ HTTP/1.1" 404 909
0:0:0:0:0:0:0:1 - - [05/Jul/2021:10:49:14 +0900] "GET /Web/RegisterUser HTTP/1.1" 200 498
0:0:0:0:0:0:0:1 - - [05/Jul/2021:10:49:32 +0900] "POST /Web/RegisterUser HTTP/1.1" 200 466
0:0:0:0:0:0:0:1 - - [05/Jul/2021:10:49:34 +0900] "GET /Web/RegisterUser?action=done HTTP/1.1" 200 329
0:0:0:0:0:0:0:1 - - [05/Jul/2021:10:49:36 +0900] "GET /Web/RegisterUser HTTP/1.1" 200 498
0:0:0:0:0:0:0:1 - - [05/Jul/2021:10:51:56 +0900] "GET /Web/ HTTP/1.1" 404 909
0:0:0:0:0:0:0:1 - - [05/Jul/2021:10:52:14 +0900] "GET /Web/RegisterUser HTTP/1.1" 200 498
0:0:0:0:0:0:0:1 - - [05/Jul/2021:10:52:22 +0900] "POST /Web/RegisterUser HTTP/1.1" 200 466
0:0:0:0:0:0:0:1 - - [05/Jul/2021:10:52:24 +0900] "GET /Web/RegisterUser?action=done HTTP/1.1" 200 329
0:0:0:0:0:0:0:1 - - [05/Jul/2021:10:52:25 +0900] "GET /Web/RegisterUser HTTP/1.1" 200 498
127.0.0.1 - - [05/Jul/2021:11:00:05 +0900] "GET / HTTP/1.1" 404 901
0:0:0:0:0:0:0:1 - - [05/Jul/2021:11:00:19 +0900] "POST /Web/RegisterUser HTTP/1.1" 200 466
0:0:0:0:0:0:0:1 - - [05/Jul/2021:11:00:21 +0900] "GET /Web/RegisterUser?action=done HTTP/1.1" 200 329
0:0:0:0:0:0:0:1 - - [05/Jul/2021:11:00:23 +0900] "GET /Web/RegisterUser HTTP/1.1" 200 498
0:0:0:0:0:0:0:1 - - [05/Jul/2021:11:01:13 +0900] "GET /Web/RegisterUser HTTP/1.1" 200 498
0:0:0:0:0:0:0:1 - - [05/Jul/2021:11:04:12 +0900] "GET /Web/RegisterUser HTTP/1.1" 200 502
0:0:0:0:0:0:0:1 - - [05/Jul/2021:11:11:01 +0900] "GET /Web/RegisterUser HTTP/1.1" 200 764
0:0:0:0:0:0:0:1 - - [05/Jul/2021:11:11:25 +0900] "GET /Web/RegisterUser HTTP/1.1" 200 764
0:0:0:0:0:0:0:1 - - [05/Jul/2021:11:11:37 +0900] "GET /Web/RegisterUser HTTP/1.1" 200 765
0:0:0:0:0:0:0:1 - - [05/Jul/2021:11:12:19 +0900] "GET /Web/RegisterUser HTTP/1.1" 200 740
0:0:0:0:0:0:0:1 - - [05/Jul/2021:11:13:08 +0900] "GET /Web/RegisterUser HTTP/1.1" 200 740
0:0:0:0:0:0:0:1 - - [05/Jul/2021:11:14:06 +0900] "GET /Web/RegisterUser HTTP/1.1" 200 762
0:0:0:0:0:0:0:1 - - [05/Jul/2021:11:14:21 +0900] "POST /Web/RegisterUser HTTP/1.1" 200 466
0:0:0:0:0:0:0:1 - - [05/Jul/2021:11:14:33 +0900] "GET /Web/RegisterUser HTTP/1.1" 200 762
0:0:0:0:0:0:0:1 - - [05/Jul/2021:11:15:13 +0900] "GET /Web/RegisterUser HTTP/1.1" 200 792
0:0:0:0:0:0:0:1 - - [05/Jul/2021:11:19:26 +0900] "GET /Web/RegisterUser HTTP/1.1" 200 868
0:0:0:0:0:0:0:1 - - [05/Jul/2021:11:20:33 +0900] "GET /Web/RegisterUser HTTP/1.1" 200 886
0:0:0:0:0:0:0:1 - - [05/Jul/2021:11:20:58 +0900] "GET /Web/RegisterUser HTTP/1.1" 200 887
0:0:0:0:0:0:0:1 - - [05/Jul/2021:11:21:00 +0900] "GET /Web/RegisterUser HTTP/1.1" 200 887
0:0:0:0:0:0:0:1 - - [05/Jul/2021:11:21:15 +0900] "GET /Web/RegisterUser HTTP/1.1" 200 888
0:0:0:0:0:0:0:1 - - [05/Jul/2021:11:21:41 +0900] "GET /Web/RegisterUser HTTP/1.1" 200 913
0:0:0:0:0:0:0:1 - - [05/Jul/2021:11:21:42 +0900] "GET /Web/RegisterUser HTTP/1.1" 200 913
0:0:0:0:0:0:0:1 - - [05/Jul/2021:11:21:53 +0900] "GET /Web/RegisterUser HTTP/1.1" 200 912
0:0:0:0:0:0:0:1 - - [05/Jul/2021:11:22:04 +0900] "GET /Web/RegisterUser HTTP/1.1" 200 912
0:0:0:0:0:0:0:1 - - [05/Jul/2021:11:22:15 +0900] "GET /Web/RegisterUser HTTP/1.1" 200 912
0:0:0:0:0:0:0:1 - - [05/Jul/2021:11:22:27 +0900] "GET /Web/RegisterUser HTTP/1.1" 200 912
0:0:0:0:0:0:0:1 - - [05/Jul/2021:11:22:39 +0900] "GET /Web/RegisterUser HTTP/1.1" 200 912
0:0:0:0:0:0:0:1 - - [05/Jul/2021:11:22:54 +0900] "GET /Web/RegisterUser HTTP/1.1" 200 912
0:0:0:0:0:0:0:1 - - [05/Jul/2021:11:23:22 +0900] "GET /Web/RegisterUser HTTP/1.1" 200 912
0:0:0:0:0:0:0:1 - - [05/Jul/2021:11:24:26 +0900] "GET /Web/RegisterUser HTTP/1.1" 200 925
0:0:0:0:0:0:0:1 - - [05/Jul/2021:11:24:42 +0900] "GET /Web/RegisterUser HTTP/1.1" 200 938
0:0:0:0:0:0:0:1 - - [05/Jul/2021:11:26:02 +0900] "GET /Web/RegisterUser HTTP/1.1" 200 968
0:0:0:0:0:0:0:1 - - [05/Jul/2021:11:26:03 +0900] "GET /Web/RegisterUser HTTP/1.1" 200 968
0:0:0:0:0:0:0:1 - - [05/Jul/2021:11:26:11 +0900] "GET /Web/RegisterUser HTTP/1.1" 200 968
0:0:0:0:0:0:0:1 - - [05/Jul/2021:11:26:35 +0900] "GET /Web/RegisterUser HTTP/1.1" 200 965
0:0:0:0:0:0:0:1 - - [05/Jul/2021:11:26:41 +0900] "GET /Web/ HTTP/1.1" 404 909
0:0:0:0:0:0:0:1 - - [05/Jul/2021:11:26:46 +0900] "GET /Web/RegisterUser HTTP/1.1" 200 965
0:0:0:0:0:0:0:1 - - [05/Jul/2021:11:28:19 +0900] "GET /Web/RegisterUser HTTP/1.1" 200 997
0:0:0:0:0:0:0:1 - - [05/Jul/2021:11:29:12 +0900] "GET /Web/RegisterUser HTTP/1.1" 200 1000
0:0:0:0:0:0:0:1 - - [05/Jul/2021:11:29:45 +0900] "GET /Web/RegisterUser HTTP/1.1" 200 996
0:0:0:0:0:0:0:1 - - [05/Jul/2021:11:33:45 +0900] "GET /Web/registerConfirm HTTP/1.1" 404 924
0:0:0:0:0:0:0:1 - - [05/Jul/2021:11:33:56 +0900] "POST /Web/RegisterUser HTTP/1.1" 200 815
0:0:0:0:0:0:0:1 - - [05/Jul/2021:11:34:27 +0900] "POST /Web/RegisterUser HTTP/1.1" 200 815
0:0:0:0:0:0:0:1 - - [05/Jul/2021:11:35:04 +0900] "POST /Web/RegisterUser HTTP/1.1" 200 813
0:0:0:0:0:0:0:1 - - [05/Jul/2021:11:35:06 +0900] "GET /Web/RegisterUser HTTP/1.1" 200 1000
0:0:0:0:0:0:0:1 - - [05/Jul/2021:11:35:08 +0900] "POST /Web/RegisterUser HTTP/1.1" 200 797
0:0:0:0:0:0:0:1 - - [05/Jul/2021:11:35:11 +0900] "GET /Web/RegisterUser HTTP/1.1" 200 1000
0:0:0:0:0:0:0:1 - - [05/Jul/2021:11:36:10 +0900] "POST /Web/RegisterUser HTTP/1.1" 200 796
0:0:0:0:0:0:0:1 - - [05/Jul/2021:11:36:12 +0900] "GET /Web/RegisterUser HTTP/1.1" 200 1000
0:0:0:0:0:0:0:1 - - [05/Jul/2021:11:36:39 +0900] "POST /Web/RegisterUser HTTP/1.1" 200 797
0:0:0:0:0:0:0:1 - - [05/Jul/2021:11:36:42 +0900] "GET /Web/RegisterUser HTTP/1.1" 200 1000
0:0:0:0:0:0:0:1 - - [05/Jul/2021:11:37:38 +0900] "GET /Web/RegisterUser HTTP/1.1" 200 1000
0:0:0:0:0:0:0:1 - - [05/Jul/2021:11:37:40 +0900] "POST /Web/RegisterUser HTTP/1.1" 200 813
0:0:0:0:0:0:0:1 - - [05/Jul/2021:11:37:48 +0900] "GET /Web/RegisterUser HTTP/1.1" 200 1000
0:0:0:0:0:0:0:1 - - [05/Jul/2021:11:37:50 +0900] "POST /Web/RegisterUser HTTP/1.1" 200 813
0:0:0:0:0:0:0:1 - - [05/Jul/2021:11:37:52 +0900] "GET /Web/RegisterUser HTTP/1.1" 200 1000
0:0:0:0:0:0:0:1 - - [05/Jul/2021:11:37:54 +0900] "POST /Web/RegisterUser HTTP/1.1" 200 813
0:0:0:0:0:0:0:1 - - [05/Jul/2021:11:37:56 +0900] "GET /Web/RegisterUser HTTP/1.1" 200 1000
0:0:0:0:0:0:0:1 - - [05/Jul/2021:11:40:23 +0900] "POST /Web/RegisterUser HTTP/1.1" 200 813
0:0:0:0:0:0:0:1 - - [05/Jul/2021:11:40:26 +0900] "GET /Web/RegisterUser HTTP/1.1" 200 1000
0:0:0:0:0:0:0:1 - - [05/Jul/2021:11:41:40 +0900] "POST /Web/RegisterUser HTTP/1.1" 200 829
0:0:0:0:0:0:0:1 - - [05/Jul/2021:11:41:44 +0900] "GET /Web/RegisterUser?action=done HTTP/1.1" 200 616
0:0:0:0:0:0:0:1 - - [05/Jul/2021:11:42:03 +0900] "GET /Web/RegisterUser?action=done HTTP/1.1" 500 1243
0:0:0:0:0:0:0:1 - - [05/Jul/2021:11:42:11 +0900] "GET /Web/RegisterUser?action=done HTTP/1.1" 500 1243
0:0:0:0:0:0:0:1 - - [05/Jul/2021:11:42:14 +0900] "GET /Web/RegisterUser?action=done HTTP/1.1" 500 1243
0:0:0:0:0:0:0:1 - - [05/Jul/2021:11:42:16 +0900] "GET /Web/RegisterUser HTTP/1.1" 200 1000
0:0:0:0:0:0:0:1 - - [05/Jul/2021:11:42:18 +0900] "POST /Web/RegisterUser HTTP/1.1" 200 829
0:0:0:0:0:0:0:1 - - [05/Jul/2021:11:42:19 +0900] "GET /Web/RegisterUser HTTP/1.1" 200 1000
0:0:0:0:0:0:0:1 - - [05/Jul/2021:11:43:07 +0900] "POST /Web/RegisterUser HTTP/1.1" 200 829
0:0:0:0:0:0:0:1 - - [05/Jul/2021:11:43:09 +0900] "GET /Web/RegisterUser?action=done HTTP/1.1" 200 616
0:0:0:0:0:0:0:1 - - [05/Jul/2021:11:43:13 +0900] "GET /Web/RegisterUser HTTP/1.1" 200 1000
0:0:0:0:0:0:0:1 - - [05/Jul/2021:11:48:18 +0900] "POST /Web/RegisterUser HTTP/1.1" 200 742
0:0:0:0:0:0:0:1 - - [05/Jul/2021:11:48:21 +0900] "GET /Web/RegisterUser HTTP/1.1" 200 920
0:0:0:0:0:0:0:1 - - [05/Jul/2021:11:56:53 +0900] "GET /Web/showall HTTP/1.1" 404 916
0:0:0:0:0:0:0:1 - - [05/Jul/2021:11:57:03 +0900] "GET /Web/showAll HTTP/1.1" 404 916
0:0:0:0:0:0:0:1 - - [05/Jul/2021:11:58:10 +0900] "POST /Web/RegisterUser HTTP/1.1" 200 771
0:0:0:0:0:0:0:1 - - [05/Jul/2021:11:58:12 +0900] "GET /Web/RegisterUser?action=done HTTP/1.1" 200 560
0:0:0:0:0:0:0:1 - - [05/Jul/2021:11:58:20 +0900] "GET /Web/RegisterUser HTTP/1.1" 200 920
0:0:0:0:0:0:0:1 - - [05/Jul/2021:12:02:12 +0900] "POST /Web/RegisterUser HTTP/1.1" 200 760
0:0:0:0:0:0:0:1 - - [05/Jul/2021:12:02:13 +0900] "GET /Web/RegisterUser?action=done HTTP/1.1" 200 617
0:0:0:0:0:0:0:1 - - [05/Jul/2021:12:02:15 +0900] "GET /Web/showAll HTTP/1.1" 404 916
0:0:0:0:0:0:0:1 - - [05/Jul/2021:12:02:21 +0900] "GET /Web/RegisterUser HTTP/1.1" 200 920
0:0:0:0:0:0:0:1 - - [05/Jul/2021:12:52:05 +0900] "POST /Web/RegisterUser HTTP/1.1" 200 808
0:0:0:0:0:0:0:1 - - [05/Jul/2021:12:52:10 +0900] "GET /Web/RegisterUser HTTP/1.1" 200 920
0:0:0:0:0:0:0:1 - - [05/Jul/2021:13:45:56 +0900] "POST /Web/RegisterUser HTTP/1.1" 200 769
0:0:0:0:0:0:0:1 - - [05/Jul/2021:13:45:58 +0900] "GET /Web/RegisterUser?action=done HTTP/1.1" 500 1570
0:0:0:0:0:0:0:1 - - [05/Jul/2021:13:46:05 +0900] "GET /Web/RegisterUser HTTP/1.1" 200 920
0:0:0:0:0:0:0:1 - - [05/Jul/2021:13:46:30 +0900] "POST /Web/RegisterUser HTTP/1.1" 200 765
0:0:0:0:0:0:0:1 - - [05/Jul/2021:13:46:30 +0900] "GET /Web/RegisterUser?action=done HTTP/1.1" 200 617
0:0:0:0:0:0:0:1 - - [05/Jul/2021:13:46:34 +0900] "GET /Web/showAll HTTP/1.1" 404 916
0:0:0:0:0:0:0:1 - - [05/Jul/2021:13:46:36 +0900] "GET /Web/RegisterUser HTTP/1.1" 200 920
0:0:0:0:0:0:0:1 - - [05/Jul/2021:14:02:17 +0900] "POST /Web/RegisterUser HTTP/1.1" 200 754
0:0:0:0:0:0:0:1 - - [05/Jul/2021:14:02:18 +0900] "GET /Web/RegisterUser?action=done HTTP/1.1" 500 1588
0:0:0:0:0:0:0:1 - - [05/Jul/2021:14:02:22 +0900] "GET /Web/RegisterUser HTTP/1.1" 200 920
0:0:0:0:0:0:0:1 - - [05/Jul/2021:14:58:33 +0900] "GET /Web/RegisterUser HTTP/1.1" 200 992
0:0:0:0:0:0:0:1 - - [05/Jul/2021:14:59:55 +0900] "GET /Web/RegisterUser HTTP/1.1" 200 955
0:0:0:0:0:0:0:1 - - [05/Jul/2021:15:00:12 +0900] "GET /Web/RegisterUser HTTP/1.1" 200 955
0:0:0:0:0:0:0:1 - - [05/Jul/2021:15:00:53 +0900] "GET /Web/RegisterUser HTTP/1.1" 200 984
0:0:0:0:0:0:0:1 - - [05/Jul/2021:15:02:29 +0900] "GET /Web/RegisterUser HTTP/1.1" 200 978
0:0:0:0:0:0:0:1 - - [05/Jul/2021:15:03:08 +0900] "GET /Web/RegisterUser HTTP/1.1" 200 980
0:0:0:0:0:0:0:1 - - [05/Jul/2021:15:03:33 +0900] "POST /Web/RegisterUser HTTP/1.1" 200 744
0:0:0:0:0:0:0:1 - - [05/Jul/2021:15:03:38 +0900] "GET /Web/RegisterUser?action=done HTTP/1.1" 500 1552
0:0:0:0:0:0:0:1 - - [05/Jul/2021:15:03:43 +0900] "GET /Web/RegisterUser HTTP/1.1" 200 980
0:0:0:0:0:0:0:1 - - [05/Jul/2021:15:05:08 +0900] "GET /Web/RegisterUser HTTP/1.1" 200 1112
0:0:0:0:0:0:0:1 - - [05/Jul/2021:15:05:27 +0900] "GET /Web/RegisterUser HTTP/1.1" 200 1097
0:0:0:0:0:0:0:1 - - [05/Jul/2021:15:05:43 +0900] "GET /Web/RegisterUser HTTP/1.1" 200 1097
0:0:0:0:0:0:0:1 - - [05/Jul/2021:15:05:44 +0900] "GET /Web/RegisterUser HTTP/1.1" 200 1097
0:0:0:0:0:0:0:1 - - [05/Jul/2021:15:05:52 +0900] "GET /Web/RegisterUser HTTP/1.1" 200 1097
0:0:0:0:0:0:0:1 - - [05/Jul/2021:15:06:20 +0900] "GET /Web/RegisterUser HTTP/1.1" 200 1097
0:0:0:0:0:0:0:1 - - [05/Jul/2021:15:07:31 +0900] "GET /Web/RegisterUser HTTP/1.1" 200 1119
0:0:0:0:0:0:0:1 - - [05/Jul/2021:15:07:53 +0900] "GET /Web/RegisterUser HTTP/1.1" 200 1119
0:0:0:0:0:0:0:1 - - [05/Jul/2021:15:08:11 +0900] "GET /Web/RegisterUser HTTP/1.1" 200 1119
0:0:0:0:0:0:0:1 - - [05/Jul/2021:15:09:17 +0900] "GET /Web/RegisterUser HTTP/1.1" 200 1151
0:0:0:0:0:0:0:1 - - [05/Jul/2021:15:09:33 +0900] "GET /Web/RegisterUser HTTP/1.1" 200 1152
0:0:0:0:0:0:0:1 - - [05/Jul/2021:15:10:16 +0900] "POST /Web/RegisterUser HTTP/1.1" 200 744
0:0:0:0:0:0:0:1 - - [05/Jul/2021:15:10:18 +0900] "GET /Web/RegisterUser HTTP/1.1" 200 1152
0:0:0:0:0:0:0:1 - - [05/Jul/2021:15:10:51 +0900] "POST /Web/RegisterUser HTTP/1.1" 200 794
0:0:0:0:0:0:0:1 - - [05/Jul/2021:15:10:56 +0900] "GET /Web/RegisterUser?action=done HTTP/1.1" 500 1604
0:0:0:0:0:0:0:1 - - [05/Jul/2021:15:11:04 +0900] "GET /Web/RegisterUser HTTP/1.1" 200 1152
0:0:0:0:0:0:0:1 - - [05/Jul/2021:15:13:40 +0900] "POST /Web/RegisterUser HTTP/1.1" 200 794
0:0:0:0:0:0:0:1 - - [05/Jul/2021:15:13:41 +0900] "GET /Web/RegisterUser?action=done HTTP/1.1" 500 1604
0:0:0:0:0:0:0:1 - - [05/Jul/2021:15:13:45 +0900] "GET /Web/RegisterUser HTTP/1.1" 200 1152
0:0:0:0:0:0:0:1 - - [05/Jul/2021:15:13:46 +0900] "GET /Web/RegisterUser HTTP/1.1" 200 1152
0:0:0:0:0:0:0:1 - - [05/Jul/2021:15:13:53 +0900] "POST /Web/RegisterUser HTTP/1.1" 200 794
0:0:0:0:0:0:0:1 - - [05/Jul/2021:15:13:55 +0900] "GET /Web/RegisterUser?action=done HTTP/1.1" 500 1604
0:0:0:0:0:0:0:1 - - [05/Jul/2021:15:15:21 +0900] "GET /Web/RegisterUser HTTP/1.1" 200 1152
0:0:0:0:0:0:0:1 - - [05/Jul/2021:15:18:37 +0900] "POST /Web/RegisterUser HTTP/1.1" 200 794
0:0:0:0:0:0:0:1 - - [05/Jul/2021:15:18:38 +0900] "GET /Web/RegisterUser?action=done HTTP/1.1" 500 1604
127.0.0.1 - - [05/Jul/2021:15:22:07 +0900] "GET / HTTP/1.1" 404 901
0:0:0:0:0:0:0:1 - - [05/Jul/2021:15:22:08 +0900] "GET /Web/ HTTP/1.1" 404 909
0:0:0:0:0:0:0:1 - - [05/Jul/2021:15:22:18 +0900] "GET /Web/RegisterUser HTTP/1.1" 200 1152
0:0:0:0:0:0:0:1 - - [05/Jul/2021:15:22:25 +0900] "POST /Web/RegisterUser HTTP/1.1" 200 794
0:0:0:0:0:0:0:1 - - [05/Jul/2021:15:22:27 +0900] "GET /Web/RegisterUser?action=done HTTP/1.1" 200 617
0:0:0:0:0:0:0:1 - - [05/Jul/2021:15:22:30 +0900] "GET /Web/showAll HTTP/1.1" 404 916
0:0:0:0:0:0:0:1 - - [05/Jul/2021:15:22:35 +0900] "GET /Web/RegisterUser HTTP/1.1" 200 1152
0:0:0:0:0:0:0:1 - - [05/Jul/2021:15:24:59 +0900] "POST /Web/RegisterUser HTTP/1.1" 200 744
0:0:0:0:0:0:0:1 - - [05/Jul/2021:15:25:01 +0900] "GET /Web/RegisterUser HTTP/1.1" 200 1152
0:0:0:0:0:0:0:1 - - [05/Jul/2021:15:27:59 +0900] "GET /Web/RegisterUser HTTP/1.1" 200 1152
0:0:0:0:0:0:0:1 - - [05/Jul/2021:15:28:09 +0900] "GET /Web HTTP/1.1" 302 -
0:0:0:0:0:0:0:1 - - [05/Jul/2021:15:28:09 +0900] "GET /Web/ HTTP/1.1" 404 909
0:0:0:0:0:0:0:1 - - [05/Jul/2021:15:28:23 +0900] "GET /Web/RegisterUser HTTP/1.1" 200 1152
0:0:0:0:0:0:0:1 - - [05/Jul/2021:15:28:46 +0900] "POST /Web/RegisterUser HTTP/1.1" 200 744
0:0:0:0:0:0:0:1 - - [05/Jul/2021:15:28:49 +0900] "GET /Web/RegisterUser HTTP/1.1" 200 1152
0:0:0:0:0:0:0:1 - - [05/Jul/2021:15:28:59 +0900] "POST /Web/RegisterUser HTTP/1.1" 200 744
0:0:0:0:0:0:0:1 - - [05/Jul/2021:15:29:04 +0900] "GET /Web/RegisterUser HTTP/1.1" 200 1152
0:0:0:0:0:0:0:1 - - [05/Jul/2021:15:29:09 +0900] "POST /Web/RegisterUser HTTP/1.1" 200 744
0:0:0:0:0:0:0:1 - - [05/Jul/2021:15:29:12 +0900] "GET /Web/RegisterUser HTTP/1.1" 200 1152
0:0:0:0:0:0:0:1 - - [05/Jul/2021:15:29:15 +0900] "POST /Web/RegisterUser HTTP/1.1" 200 744
0:0:0:0:0:0:0:1 - - [05/Jul/2021:15:29:17 +0900] "GET /Web/RegisterUser?action=done HTTP/1.1" 200 617
0:0:0:0:0:0:0:1 - - [05/Jul/2021:15:29:23 +0900] "GET /Web/RegisterUser HTTP/1.1" 200 1152
0:0:0:0:0:0:0:1 - - [05/Jul/2021:15:30:26 +0900] "GET /Web/RegisterUser HTTP/1.1" 200 1152
0:0:0:0:0:0:0:1 - - [05/Jul/2021:15:48:04 +0900] "POST /Web/RegisterUser HTTP/1.1" 200 744
0:0:0:0:0:0:0:1 - - [05/Jul/2021:15:48:06 +0900] "GET /Web/RegisterUser HTTP/1.1" 200 1152
0:0:0:0:0:0:0:1 - - [05/Jul/2021:16:14:42 +0900] "GET /Web/RegisterUser HTTP/1.1" 200 1152
0:0:0:0:0:0:0:1 - - [05/Jul/2021:16:33:07 +0900] "GET /Web/RegisterUser HTTP/1.1" 200 1152
0:0:0:0:0:0:0:1 - - [05/Jul/2021:16:33:17 +0900] "POST /Web/RegisterUser HTTP/1.1" 200 744
0:0:0:0:0:0:0:1 - - [05/Jul/2021:16:33:19 +0900] "GET /Web/RegisterUser HTTP/1.1" 200 1152
0:0:0:0:0:0:0:1 - - [05/Jul/2021:17:22:53 +0900] "GET /Web/RegisterUser HTTP/1.1" 200 1152
