127.0.0.1 - - [26/Jul/2021:09:08:02 +0900] "GET / HTTP/1.1" 404 901
0:0:0:0:0:0:0:1 - - [26/Jul/2021:09:08:02 +0900] "GET /Web/ HTTP/1.1" 404 909
0:0:0:0:0:0:0:1 - - [26/Jul/2021:09:08:02 +0900] "GET /favicon.ico HTTP/1.1" 404 912
0:0:0:0:0:0:0:1 - - [26/Jul/2021:09:08:04 +0900] "GET /Web/RegisterUser HTTP/1.1" 200 1224
0:0:0:0:0:0:0:1 - - [26/Jul/2021:09:08:12 +0900] "POST /Web/RegisterUser HTTP/1.1" 200 773
0:0:0:0:0:0:0:1 - - [26/Jul/2021:09:08:13 +0900] "GET /Web/RegisterUser?action=done HTTP/1.1" 500 2583
0:0:0:0:0:0:0:1 - - [26/Jul/2021:10:19:12 +0900] "GET /Web/RegisterUser?action=done HTTP/1.1" 500 1638
0:0:0:0:0:0:0:1 - - [26/Jul/2021:10:19:16 +0900] "GET /Web/RegisterUser HTTP/1.1" 200 1224
0:0:0:0:0:0:0:1 - - [26/Jul/2021:11:52:46 +0900] "GET /Web/RegisterUser HTTP/1.1" 200 1224
0:0:0:0:0:0:0:1 - - [26/Jul/2021:11:52:53 +0900] "POST /Web/RegisterUser HTTP/1.1" 200 773
0:0:0:0:0:0:0:1 - - [26/Jul/2021:11:52:54 +0900] "GET /Web/RegisterUser?action=done HTTP/1.1" 500 1638
127.0.0.1 - - [26/Jul/2021:11:53:27 +0900] "GET / HTTP/1.1" 404 901
0:0:0:0:0:0:0:1 - - [26/Jul/2021:11:53:27 +0900] "GET /Web/ HTTP/1.1" 404 909
0:0:0:0:0:0:0:1 - - [26/Jul/2021:11:53:30 +0900] "GET /Web/RegisterUser HTTP/1.1" 200 1224
0:0:0:0:0:0:0:1 - - [26/Jul/2021:11:53:36 +0900] "POST /Web/RegisterUser HTTP/1.1" 200 773
0:0:0:0:0:0:0:1 - - [26/Jul/2021:11:53:38 +0900] "GET /Web/RegisterUser?action=done HTTP/1.1" 500 2583
0:0:0:0:0:0:0:1 - - [26/Jul/2021:11:53:47 +0900] "GET /Web/RegisterUser HTTP/1.1" 200 1224
127.0.0.1 - - [26/Jul/2021:11:54:44 +0900] "GET / HTTP/1.1" 404 901
0:0:0:0:0:0:0:1 - - [26/Jul/2021:11:54:44 +0900] "GET /Web/ HTTP/1.1" 404 909
0:0:0:0:0:0:0:1 - - [26/Jul/2021:11:54:46 +0900] "GET /Web/RegisterUser HTTP/1.1" 200 1224
0:0:0:0:0:0:0:1 - - [26/Jul/2021:11:54:53 +0900] "POST /Web/RegisterUser HTTP/1.1" 200 773
0:0:0:0:0:0:0:1 - - [26/Jul/2021:11:54:54 +0900] "GET /Web/RegisterUser?action=done HTTP/1.1" 500 2583
0:0:0:0:0:0:0:1 - - [26/Jul/2021:11:55:00 +0900] "GET /Web/RegisterUser HTTP/1.1" 200 1224
0:0:0:0:0:0:0:1 - - [26/Jul/2021:11:55:08 +0900] "GET /Web/RegisterUser HTTP/1.1" 200 1224
127.0.0.1 - - [26/Jul/2021:11:55:49 +0900] "GET / HTTP/1.1" 404 901
0:0:0:0:0:0:0:1 - - [26/Jul/2021:11:55:49 +0900] "GET /Web/ HTTP/1.1" 404 909
0:0:0:0:0:0:0:1 - - [26/Jul/2021:11:55:51 +0900] "GET /Web/RegisterUser HTTP/1.1" 200 1224
0:0:0:0:0:0:0:1 - - [26/Jul/2021:11:55:58 +0900] "POST /Web/RegisterUser HTTP/1.1" 200 773
0:0:0:0:0:0:0:1 - - [26/Jul/2021:11:55:59 +0900] "GET /Web/RegisterUser?action=done HTTP/1.1" 500 2583
0:0:0:0:0:0:0:1 - - [26/Jul/2021:11:56:01 +0900] "GET /Web/RegisterUser HTTP/1.1" 200 1224
0:0:0:0:0:0:0:1 - - [26/Jul/2021:11:56:03 +0900] "GET /Web/RegisterUser?action=member HTTP/1.1" 200 475
0:0:0:0:0:0:0:1 - - [26/Jul/2021:11:56:06 +0900] "GET /Web/RegisterUser HTTP/1.1" 200 1224
0:0:0:0:0:0:0:1 - - [26/Jul/2021:13:41:36 +0900] "GET /Web/ HTTP/1.1" 404 909
0:0:0:0:0:0:0:1 - - [26/Jul/2021:13:41:41 +0900] "GET /Web/RegisterUser HTTP/1.1" 200 1224
0:0:0:0:0:0:0:1 - - [26/Jul/2021:13:41:50 +0900] "POST /Web/RegisterUser HTTP/1.1" 200 773
0:0:0:0:0:0:0:1 - - [26/Jul/2021:13:41:52 +0900] "GET /Web/RegisterUser?action=done HTTP/1.1" 500 1638
0:0:0:0:0:0:0:1 - - [26/Jul/2021:13:41:57 +0900] "GET /Web/RegisterUser HTTP/1.1" 200 1224
127.0.0.1 - - [26/Jul/2021:15:33:37 +0900] "GET / HTTP/1.1" 404 901
0:0:0:0:0:0:0:1 - - [26/Jul/2021:15:33:38 +0900] "GET /Web/ HTTP/1.1" 404 909
0:0:0:0:0:0:0:1 - - [26/Jul/2021:15:33:40 +0900] "GET /Web/RegisterUser HTTP/1.1" 200 1224
0:0:0:0:0:0:0:1 - - [26/Jul/2021:15:33:47 +0900] "POST /Web/RegisterUser HTTP/1.1" 200 773
0:0:0:0:0:0:0:1 - - [26/Jul/2021:15:33:49 +0900] "GET /Web/RegisterUser?action=done HTTP/1.1" 500 2583
0:0:0:0:0:0:0:1 - - [26/Jul/2021:15:33:58 +0900] "GET /Web/RegisterUser HTTP/1.1" 200 1224
0:0:0:0:0:0:0:1 - - [26/Jul/2021:15:38:56 +0900] "POST /Web/RegisterUser HTTP/1.1" 200 773
0:0:0:0:0:0:0:1 - - [26/Jul/2021:15:39:00 +0900] "GET /Web/RegisterUser?action=done HTTP/1.1" 500 1638
0:0:0:0:0:0:0:1 - - [26/Jul/2021:15:39:04 +0900] "GET /Web/RegisterUser?action=done HTTP/1.1" 500 1638
0:0:0:0:0:0:0:1 - - [26/Jul/2021:15:39:07 +0900] "GET /Web/RegisterUser HTTP/1.1" 200 1224
127.0.0.1 - - [26/Jul/2021:15:49:45 +0900] "GET / HTTP/1.1" 404 901
0:0:0:0:0:0:0:1 - - [26/Jul/2021:15:49:46 +0900] "GET /Web/ HTTP/1.1" 404 909
0:0:0:0:0:0:0:1 - - [26/Jul/2021:15:49:48 +0900] "GET /Web/ HTTP/1.1" 404 909
0:0:0:0:0:0:0:1 - - [26/Jul/2021:15:49:50 +0900] "GET /Web/RegisterUser HTTP/1.1" 200 1224
0:0:0:0:0:0:0:1 - - [26/Jul/2021:15:49:56 +0900] "POST /Web/RegisterUser HTTP/1.1" 200 773
0:0:0:0:0:0:0:1 - - [26/Jul/2021:15:49:57 +0900] "GET /Web/RegisterUser?action=done HTTP/1.1" 500 2583
0:0:0:0:0:0:0:1 - - [26/Jul/2021:15:50:08 +0900] "GET /Web/RegisterUser HTTP/1.1" 200 1224
0:0:0:0:0:0:0:1 - - [26/Jul/2021:15:50:39 +0900] "POST /Web/RegisterUser HTTP/1.1" 200 773
0:0:0:0:0:0:0:1 - - [26/Jul/2021:15:50:40 +0900] "GET /Web/RegisterUser?action=done HTTP/1.1" 500 1638
0:0:0:0:0:0:0:1 - - [26/Jul/2021:15:50:46 +0900] "GET /Web/RegisterUser HTTP/1.1" 200 1224
127.0.0.1 - - [26/Jul/2021:16:35:16 +0900] "GET / HTTP/1.1" 404 901
0:0:0:0:0:0:0:1 - - [26/Jul/2021:16:35:25 +0900] "GET /Web/RegisterUser HTTP/1.1" 200 1224
0:0:0:0:0:0:0:1 - - [26/Jul/2021:16:35:32 +0900] "POST /Web/RegisterUser HTTP/1.1" 200 773
0:0:0:0:0:0:0:1 - - [26/Jul/2021:16:35:33 +0900] "GET /Web/RegisterUser?action=done HTTP/1.1" 500 2583
0:0:0:0:0:0:0:1 - - [26/Jul/2021:16:35:42 +0900] "GET /Web/RegisterUser HTTP/1.1" 200 1224
